<?xml version="1.0" encoding="UTF-8" standalone="no"?>
<!-- Created with Inkscape (http://www.inkscape.org/) -->

<svg
   id="svg5"
   version="1.1"
   viewBox="0 0 165 32.000002"
   height="32"
   width="165"
   inkscape:export-filename="../65e274a9/village.png"
   inkscape:export-xdpi="200"
   inkscape:export-ydpi="200"
   inkscape:version="1.2.2 (732a01da63, 2022-12-09, custom)"
   sodipodi:docname="village.svg"
   xmlns:inkscape="http://www.inkscape.org/namespaces/inkscape"
   xmlns:sodipodi="http://sodipodi.sourceforge.net/DTD/sodipodi-0.dtd"
   xmlns="http://www.w3.org/2000/svg"
   xmlns:svg="http://www.w3.org/2000/svg">
  <sodipodi:namedview
     id="namedview7"
     pagecolor="#ffffff"
     bordercolor="#666666"
     borderopacity="1.0"
     inkscape:showpageshadow="true"
     inkscape:pageopacity="0.0"
     inkscape:pagecheckerboard="true"
     inkscape:deskcolor="#d1d1d1"
     inkscape:document-units="mm"
     showgrid="false"
     borderlayer="true"
     showborder="true"
     shape-rendering="auto"
     showguides="true"
     inkscape:zoom="4"
     inkscape:cx="102.375"
     inkscape:cy="63.75"
     inkscape:window-width="1920"
     inkscape:window-height="1044"
     inkscape:window-x="1920"
     inkscape:window-y="0"
     inkscape:window-maximized="1"
     inkscape:current-layer="layer1" />
  <defs
     id="defs2" />
  <g
     inkscape:label="Capa 1"
     inkscape:groupmode="layer"
     id="layer1">
    <circle
       style="display:none;fill:#9b59d0;fill-opacity:1;stroke:#2e2e2e;stroke-width:4;stroke-linecap:butt;stroke-linejoin:round;stroke-dasharray:none;stroke-opacity:1"
       id="path234"
       cx="1024"
       cy="1294"
       r="1022" />
    <g
       id="g70579"
       transform="matrix(1.0163815,-0.01168406,0.01126533,0.97493369,-2027.2247,-897.6407)"
       style="fill:#9b59d0;fill-opacity:1;stroke:#2e2e2e;stroke-width:3.01898;stroke-dasharray:none;stroke-opacity:1">
      <path
         id="path70575"
         style="fill:#9b59d0;fill-opacity:1;stroke:#2e2e2e;stroke-width:3.01898;stroke-linecap:butt;stroke-linejoin:round;stroke-dasharray:none;stroke-opacity:1"
         d="m 2039.6585,975.68268 v -10 h 14 v 10"
         sodipodi:nodetypes="cccc" />
      <path
         id="path70577"
         style="fill:#9b59d0;fill-opacity:1;stroke:#2e2e2e;stroke-width:3.01898;stroke-linecap:butt;stroke-linejoin:round;stroke-dasharray:none;stroke-opacity:1"
         d="m 2046.6546,958.73348 v 0.006 l -12.3144,6.98047 12.3184,-0.0332 v -0.006 l 12.3144,0.0332 z" />
    </g>
    <g
       id="g69115"
       transform="matrix(1.0126158,-0.00404432,0.00389468,0.97514833,-1998.1443,-913.54229)"
       style="fill:#9b59d0;fill-opacity:1;stroke:#2e2e2e;stroke-width:3.01898;stroke-dasharray:none;stroke-opacity:1">
      <path
         id="rect950"
         style="fill:#9b59d0;fill-opacity:1;stroke:#2e2e2e;stroke-width:3.01898;stroke-linecap:butt;stroke-linejoin:round;stroke-dasharray:none;stroke-opacity:1"
         d="m 2039.6585,975.68268 v -10 h 14 v 10"
         sodipodi:nodetypes="cccc" />
      <path
         id="path3914"
         style="fill:#9b59d0;fill-opacity:1;stroke:#2e2e2e;stroke-width:3.01898;stroke-linecap:butt;stroke-linejoin:round;stroke-dasharray:none;stroke-opacity:1"
         d="m 2046.6546,958.73348 v 0.006 l -12.3144,6.98047 12.3184,-0.0332 v -0.006 l 12.3144,0.0332 z" />
    </g>
    <g
       id="g70597"
       transform="matrix(1.0124467,0.01894031,-0.0182395,0.97498551,-1954.6528,-972.01342)"
       style="fill:#9b59d0;fill-opacity:1;stroke:#2e2e2e;stroke-width:3.01898;stroke-dasharray:none;stroke-opacity:1">
      <path
         id="path70593"
         style="fill:#9b59d0;fill-opacity:1;stroke:#2e2e2e;stroke-width:3.01898;stroke-linecap:butt;stroke-linejoin:round;stroke-dasharray:none;stroke-opacity:1"
         d="m 2039.6585,975.68268 v -10 h 14 v 10"
         sodipodi:nodetypes="cccc" />
      <path
         id="path70595"
         style="fill:#9b59d0;fill-opacity:1;stroke:#2e2e2e;stroke-width:3.01898;stroke-linecap:butt;stroke-linejoin:round;stroke-dasharray:none;stroke-opacity:1"
         d="m 2046.6546,958.73348 v 0.006 l -12.3144,6.98047 12.3184,-0.0332 v -0.006 l 12.3144,0.0332 z" />
    </g>
    <g
       id="g70585"
       transform="matrix(1.0123767,0.02237034,-0.02154262,0.97491813,-1944.5713,-967.29487)"
       style="fill:#9b59d0;fill-opacity:1;stroke:#2e2e2e;stroke-width:3.01898;stroke-dasharray:none;stroke-opacity:1">
      <path
         id="path70581"
         style="fill:#9b59d0;fill-opacity:1;stroke:#2e2e2e;stroke-width:3.01898;stroke-linecap:butt;stroke-linejoin:round;stroke-dasharray:none;stroke-opacity:1"
         d="m 2039.6585,975.68268 v -10 h 14 v 10"
         sodipodi:nodetypes="cccc" />
      <path
         id="path70583"
         style="fill:#9b59d0;fill-opacity:1;stroke:#2e2e2e;stroke-width:3.01898;stroke-linecap:butt;stroke-linejoin:round;stroke-dasharray:none;stroke-opacity:1"
         d="m 2046.6546,958.73348 v 0.006 l -12.3144,6.98047 12.3184,-0.0332 v -0.006 l 12.3144,0.0332 z" />
    </g>
    <g
       id="g70573"
       transform="matrix(1.0126089,0.00550785,-0.00530406,0.97514168,-1974.9399,-933.04331)"
       style="fill:#9b59d0;fill-opacity:1;stroke:#2e2e2e;stroke-width:3.01898;stroke-dasharray:none;stroke-opacity:1">
      <path
         id="path70569"
         style="fill:#9b59d0;fill-opacity:1;stroke:#2e2e2e;stroke-width:3.01898;stroke-linecap:butt;stroke-linejoin:round;stroke-dasharray:none;stroke-opacity:1"
         d="m 2039.6585,975.68268 v -10 h 14 v 10"
         sodipodi:nodetypes="cccc" />
      <path
         id="path70571"
         style="fill:#9b59d0;fill-opacity:1;stroke:#2e2e2e;stroke-width:3.01898;stroke-linecap:butt;stroke-linejoin:round;stroke-dasharray:none;stroke-opacity:1"
         d="m 2046.6546,958.73348 v 0.006 l -12.3144,6.98047 12.3184,-0.0332 v -0.006 l 12.3144,0.0332 z" />
    </g>
    <g
       id="g70591"
       transform="matrix(1.0115436,-0.04676196,0.04503173,0.97411579,-2071.7004,-824.47096)"
       style="fill:#9b59d0;fill-opacity:1;stroke:#2e2e2e;stroke-width:3.01898;stroke-dasharray:none;stroke-opacity:1">
      <path
         id="path70587"
         style="fill:#9b59d0;fill-opacity:1;stroke:#2e2e2e;stroke-width:3.01898;stroke-linecap:butt;stroke-linejoin:round;stroke-dasharray:none;stroke-opacity:1"
         d="m 2039.6585,975.68268 v -10 h 14 v 10"
         sodipodi:nodetypes="cccc" />
      <path
         id="path70589"
         style="fill:#9b59d0;fill-opacity:1;stroke:#2e2e2e;stroke-width:3.01898;stroke-linecap:butt;stroke-linejoin:round;stroke-dasharray:none;stroke-opacity:1"
         d="m 2046.6546,958.73348 v 0.006 l -12.3144,6.98047 12.3184,-0.0332 v -0.006 l 12.3144,0.0332 z" />
    </g>
    <g
       id="g70603"
       transform="matrix(1.0112299,0.0531153,-0.05114999,0.9738137,-1883.1027,-1027.9749)"
       style="fill:#9b59d0;fill-opacity:1;stroke:#2e2e2e;stroke-width:3.01898;stroke-dasharray:none;stroke-opacity:1">
      <path
         id="path70599"
         style="fill:#9b59d0;fill-opacity:1;stroke:#2e2e2e;stroke-width:3.01898;stroke-linecap:butt;stroke-linejoin:round;stroke-dasharray:none;stroke-opacity:1"
         d="m 2039.6585,975.68268 v -10 h 14 v 10"
         sodipodi:nodetypes="cccc" />
      <path
         id="path70601"
         style="fill:#9b59d0;fill-opacity:1;stroke:#2e2e2e;stroke-width:3.01898;stroke-linecap:butt;stroke-linejoin:round;stroke-dasharray:none;stroke-opacity:1"
         d="m 2046.6546,958.73348 v 0.006 l -12.3144,6.98047 12.3184,-0.0332 v -0.006 l 12.3144,0.0332 z" />
    </g>
    <g
       id="g70609"
       transform="matrix(1.0104347,-0.06655023,0.06408782,0.97304788,-2115.7471,-781.52909)"
       style="fill:#9b59d0;fill-opacity:1;stroke:#2e2e2e;stroke-width:3.01898;stroke-dasharray:none;stroke-opacity:1">
      <path
         id="path70605"
         style="fill:#9b59d0;fill-opacity:1;stroke:#2e2e2e;stroke-width:3.01898;stroke-linecap:butt;stroke-linejoin:round;stroke-dasharray:none;stroke-opacity:1"
         d="m 2039.6585,975.68268 v -10 h 14 v 10"
         sodipodi:nodetypes="cccc" />
      <path
         id="path70607"
         style="fill:#9b59d0;fill-opacity:1;stroke:#2e2e2e;stroke-width:3.01898;stroke-linecap:butt;stroke-linejoin:round;stroke-dasharray:none;stroke-opacity:1"
         d="m 2046.6546,958.73348 v 0.006 l -12.3144,6.98047 12.3184,-0.0332 v -0.006 l 12.3144,0.0332 z" />
    </g>
    <g
       id="g70615"
       transform="matrix(1.0104784,0.06588345,-0.06344572,0.97308997,-1855.7791,-1052.5619)"
       style="fill:#9b59d0;fill-opacity:1;stroke:#2e2e2e;stroke-width:3.01898;stroke-dasharray:none;stroke-opacity:1">
      <path
         id="path70611"
         style="fill:#9b59d0;fill-opacity:1;stroke:#2e2e2e;stroke-width:3.01898;stroke-linecap:butt;stroke-linejoin:round;stroke-dasharray:none;stroke-opacity:1"
         d="m 2039.6585,975.68268 v -10 h 14 v 10"
         sodipodi:nodetypes="cccc" />
      <path
         id="path70613"
         style="fill:#9b59d0;fill-opacity:1;stroke:#2e2e2e;stroke-width:3.01898;stroke-linecap:butt;stroke-linejoin:round;stroke-dasharray:none;stroke-opacity:1"
         d="m 2046.6546,958.73348 v 0.006 l -12.3144,6.98047 12.3184,-0.0332 v -0.006 l 12.3144,0.0332 z" />
    </g>
  </g>
</svg>
