[gd_scene load_steps=3 format=3 uid="uid://cgg0idcklrhbl"]

[ext_resource type="Script" path="res://scenes/components/breadcrumbs.gd" id="1_jvqff"]
[ext_resource type="Texture2D" uid="uid://cqel1t5o8i4sd" path="res://assets/sprites/breadcrumb.png" id="1_mhcxw"]

[node name="Breadcrumbs" type="Line2D"]
texture_filter = 2
texture_repeat = 2
points = PackedVector2Array(0, 0, 500, 0)
width = 12.0
texture = ExtResource("1_mhcxw")
texture_mode = 1
script = ExtResource("1_jvqff")
